Execute scheduled task: Cleanup files in trash (core\task\file_trash_cleanup_task)
... started 10:12:05. Current memory use 55MB.
Deleting old draft files... ... started 10:12:05. Current memory use 55MB.
done.
Deleting orphaned preview files... ... started 10:12:05. Current memory use 55MB.
done.
Deleting orphaned document conversion files... ... started 10:12:05. Current memory use 55MB.
done.
... used 3 dbqueries
... used 0.0025138854980469 seconds
Scheduled task complete: Cleanup files in trash (core\task\file_trash_cleanup_task)
