Execute scheduled task: Cleanup files in trash (core\task\file_trash_cleanup_task)
... started 10:11:50. Current memory use 33.3MB.
Deleting old draft files... ... started 10:11:50. Current memory use 33.3MB.
done.
Deleting orphaned preview files... ... started 10:11:50. Current memory use 33.3MB.
done.
Deleting orphaned document conversion files... ... started 10:11:50. Current memory use 33.3MB.
done.
Cleaning up files from deleted contexts... ... started 10:11:50. Current memory use 33.3MB.
done.
Call filesystem cron tasks.... started 10:11:50. Current memory use 33.3MB.
done.
... used 7 dbqueries
... used 0.098201036453247 seconds
Scheduled task complete: Cleanup files in trash (core\task\file_trash_cleanup_task)
