Execute scheduled task: Background processing for gradebook (core\task\grade_cron_task)
... started 10:12:05. Current memory use 55MB.
... used 2 dbqueries
... used 0.0017430782318115 seconds
Scheduled task complete: Background processing for gradebook (core\task\grade_cron_task)
